<?xml version="1.0" encoding="UTF-8" standalone="no"?>
<!-- Created with Inkscape (http://www.inkscape.org/) -->

<svg
   xmlns:dc="http://purl.org/dc/elements/1.1/"
   xmlns:cc="http://creativecommons.org/ns#"
   xmlns:rdf="http://www.w3.org/1999/02/22-rdf-syntax-ns#"
   xmlns:svg="http://www.w3.org/2000/svg"
   xmlns="http://www.w3.org/2000/svg"
   xmlns:sodipodi="http://sodipodi.sourceforge.net/DTD/sodipodi-0.dtd"
   xmlns:inkscape="http://www.inkscape.org/namespaces/inkscape"
   width="2.3812499mm"
   height="1.594587mm"
   viewBox="0 0 2.3812499 1.594587"
   version="1.1"
   id="svg4617"
   inkscape:version="0.92.4 (5da689c313, 2019-01-14)"
   sodipodi:docname="popup-icon.svg">
  <defs
     id="defs4611" />
  <sodipodi:namedview
     id="base"
     pagecolor="#ffffff"
     bordercolor="#666666"
     borderopacity="1.0"
     inkscape:pageopacity="0.0"
     inkscape:pageshadow="2"
     inkscape:zoom="114.20161"
     inkscape:cx="5.1728691"
     inkscape:cy="2.5306122"
     inkscape:document-units="mm"
     inkscape:current-layer="layer2"
     showgrid="false"
     inkscape:window-width="2560"
     inkscape:window-height="1403"
     inkscape:window-x="0"
     inkscape:window-y="0"
     inkscape:window-maximized="1" />
  <metadata
     id="metadata4614">
    <rdf:RDF>
      <cc:Work
         rdf:about="">
        <dc:format>image/svg+xml</dc:format>
        <dc:type
           rdf:resource="http://purl.org/dc/dcmitype/StillImage" />
        <dc:title></dc:title>
      </cc:Work>
    </rdf:RDF>
  </metadata>
  <g
     inkscape:groupmode="layer"
     id="layer2"
     inkscape:label="Layer 2"
     transform="translate(362.85714,-167.27148)">
    <g
       id="g5280"
       transform="matrix(0.01125,0,0,0.01125,-358.775,166.96632)">
      <rect
         y="27.124998"
         x="-362.85715"
         height="26.458332"
         width="211.66666"
         id="rect5225"
         style="fill:#333333;fill-opacity:0.66153846;stroke-width:0.26458332" />
      <rect
         y="84.199402"
         x="-329.59521"
         height="26.458334"
         width="144.3869"
         id="rect5225-5"
         style="fill:#333333;fill-opacity:0.66153846;stroke-width:0.2185245" />
      <rect
         y="142.40773"
         x="-295.57739"
         height="26.458334"
         width="74.083344"
         id="rect5225-2"
         style="fill:#333333;fill-opacity:0.66153846;stroke-width:0.15652961" />
    </g>
  </g>
</svg>
